Lab 10 Homework
…
Use the function(s) of your choice to get an idea of its structure, including how NAs are treated. Are the data tidy?

deserts

## # A tibble: 34,786 x 13
##    record_id month   day  year plot_id species_id sex   hindfoot_length weight
##        <dbl> <dbl> <dbl> <dbl>   <dbl> <chr>      <chr>           <dbl>  <dbl>
##  1         1     7    16  1977       2 NL         M                  32     NA
##  2         2     7    16  1977       3 NL         M                  33     NA
##  3         3     7    16  1977       2 DM         F                  37     NA
##  4         4     7    16  1977       7 DM         M                  36     NA
##  5         5     7    16  1977       3 DM         M                  35     NA
##  6         6     7    16  1977       1 PF         M                  14     NA
##  7         7     7    16  1977       2 PE         F                  NA     NA
##  8         8     7    16  1977       1 DM         M                  37     NA
##  9         9     7    16  1977       1 DM         F                  34     NA
## 10        10     7    16  1977       6 PF         F                  20     NA
## #  with 34,776 more rows, and 4 more variables: genus <chr>, species <chr>,
## #   taxa <chr>, plot_type <chr>
…
deserts %>%
  summarize(n_genera=n_distinct(genus),
            n_species=n_distinct(species),
            n=n())

## # A tibble: 1 x 3
##   n_genera n_species     n
##      <int>     <int> <int>
## 1       26        40 34786

deserts %>% 
  count(species_id, sort=T)

## # A tibble: 48 x 2
##    species_id     n
##    <chr>      <int>
##  1 DM         10596
##  2 PP          3123
##  3 DO          3027
##  4 PB          2891
##  5 RM          2609
##  6 DS          2504
##  7 OT          2249
##  8 PF          1597
##  9 PE          1299
## 10 NL          1252
## #  with 38 more rows
…
Dipodomys merriami is the most frequently sampled animal in the study. How have the number of observations of this species changed over the years included in the study?

deserts %>% 
  filter(species_id=="DM") %>% 
  group_by(year) %>% 
  summarize(n_samples=n())

## # A tibble: 26 x 2
##     year n_samples
##  * <dbl>     <int>
##  1  1977       264
##  2  1978       389
##  3  1979       209
##  4  1980       493
##  5  1981       559
##  6  1982       609
##  7  1983       528
##  8  1984       396
##  9  1985       667
## 10  1986       406
## #  with 16 more rows
…
Which two species have, on average, the highest weight? Once you have identified them, make a new column that is a ratio of weight to hindfoot_length. Make a plot that shows the range of this new ratio and fill by sex.

deserts %>% 
  filter(weight!="NA") %>% 
  group_by(species_id) %>% 
  summarize(mean_weight=mean(weight)) %>% 
  arrange(desc(mean_weight))

## # A tibble: 25 x 2
##    species_id mean_weight
##    <chr>            <dbl>
##  1 NL               159. 
##  2 DS               120. 
##  3 SS                93.5
##  4 SH                73.1
##  5 SF                58.9
##  6 SO                55.4
##  7 DO                48.9
##  8 DM                43.2
##  9 PB                31.7
## 10 OL                31.6
## #  with 15 more rows

deserts %>% 
  filter(species_id=="NL" | species_id=="DS") %>% 
  filter(weight!="NA" & hindfoot_length!="NA") %>% 
  mutate(ratio=weight/hindfoot_length) %>% 
  select(species_id, sex, weight, hindfoot_length, ratio)

## # A tibble: 3,072 x 5
##    species_id sex   weight hindfoot_length ratio
##    <chr>      <chr>  <dbl>           <dbl> <dbl>
##  1 DS         F        117              50  2.34
##  2 DS         F        121              51  2.37
##  3 DS         M        115              51  2.25
##  4 DS         F        120              48  2.5 
##  5 DS         F        118              48  2.46
##  6 DS         F        126              52  2.42
##  7 DS         M        132              50  2.64
##  8 DS         F        122              53  2.30
##  9 DS         F        107              48  2.23
## 10 DS         F        115              50  2.3 
## #  with 3,062 more rows
…
